<svg width="91" height="20" viewBox="0 0 91 20" fill="none" xmlns="http://www.w3.org/2000/svg">
<path d="M17.1753 10.3687C17.0555 10.7366 16.8613 11.0762 16.6047 11.3668L15.1396 12.8237L12.3065 10.0065L15.1396 7.18928L16.6047 8.61799C16.8613 8.82247 17.0522 9.09724 17.1536 9.40837C17.255 9.7195 17.2626 10.0534 17.1753 10.3687ZM9.89034 16.8443C9.52922 16.7205 9.1973 16.5246 8.91497 16.2687L7.45395 14.8158L10.287 11.9987L13.12 14.8158L11.6509 16.2768C11.4453 16.532 11.1689 16.7218 10.8561 16.8226C10.5432 16.9235 10.2075 16.931 9.89034 16.8443ZM3.37439 9.59998C3.49611 9.2312 3.69312 8.89141 3.95313 8.60192L5.4182 7.14901L8.25126 9.96623L5.4182 12.7835L3.94908 11.3225C3.69218 11.1172 3.50097 10.8419 3.39891 10.5303C3.29685 10.2186 3.28835 9.8842 3.37439 9.5678V9.59998ZM10.6593 3.09226C11.0319 3.212 11.3753 3.40807 11.6671 3.66776L13.1281 5.12063L10.2951 7.93786L7.46205 5.12063L8.91497 3.69998C9.12062 3.4447 9.39696 3.25498 9.7098 3.15409C10.0227 3.05324 10.3584 3.04577 10.6755 3.13249L10.6593 3.09226ZM18.6283 6.62584L13.6664 1.70779C13.0853 1.16761 12.3956 0.756082 11.6428 0.500437C9.9551 -0.0590025 8.27957 0.375652 6.91971 1.70779L1.95383 6.62584C1.41077 7.20382 0.996993 7.88966 0.739638 8.6381C0.177093 10.3164 0.614178 11.9866 1.95383 13.3388L6.89141 18.269C7.46993 18.8182 8.15987 19.2381 8.91497 19.5005C9.37536 19.6551 9.85772 19.7353 10.3436 19.7379C10.9638 19.7254 11.5751 19.5889 12.1411 19.3365C12.707 19.0842 13.2162 18.7211 13.6381 18.269L18.6283 13.3549C19.1787 12.779 19.5996 12.093 19.8627 11.3426C20.4252 9.66437 19.9841 7.9942 18.6283 6.64595" fill="#00ADE5"/>
<path d="M87.8352 9.56783H90.2638C90.2319 8.75833 89.8989 7.98941 89.3287 7.41066C88.5597 6.60575 87.2848 6.20327 86.0302 6.20327C84.8728 6.15867 83.7379 6.53015 82.833 7.2497C82.4869 7.53702 82.2102 7.89829 82.0239 8.30662C81.8376 8.7149 81.7462 9.15977 81.7566 9.6081C81.7683 10.2853 82.0171 10.9372 82.4604 11.4515C82.9036 11.9658 83.5134 12.3102 84.1848 12.4253C85.1158 12.6265 86.1679 12.6869 87.099 12.8278C87.3838 12.8423 87.652 12.9653 87.8478 13.1714C88.044 13.3776 88.1524 13.6509 88.1511 13.9345C88.1511 15.0815 86.856 15.2626 86.0059 15.2626C85.4344 15.307 84.8661 15.1425 84.4075 14.7998C84.1263 14.5524 83.9382 14.2175 83.8734 13.85H81.4893C81.5869 14.6754 81.9757 15.4397 82.5864 16.0072C83.5174 16.8353 84.7374 17.2686 85.9857 17.2145C87.4225 17.2145 88.7379 16.8483 89.5879 16.0072C89.8894 15.7071 90.1257 15.3487 90.2827 14.9541C90.4393 14.5595 90.5127 14.1371 90.4983 13.7131C90.4983 12.0631 89.2842 11.0167 87.625 10.7551C86.5927 10.5941 86.3299 10.574 85.3786 10.4533C84.8121 10.3727 84.1645 10.1514 84.1645 9.40282C84.1708 9.15856 84.2518 8.92199 84.3963 8.72439C84.5407 8.5268 84.7423 8.37744 84.9741 8.29608C85.3224 8.16563 85.695 8.11073 86.0667 8.13507C86.5698 8.12027 87.0603 8.29248 87.4428 8.61801C87.6867 8.87573 87.8266 9.21395 87.8352 9.56783ZM74.427 9.36258C74.4333 9.11832 74.5143 8.88176 74.6587 8.68416C74.8032 8.48652 75.0048 8.33717 75.2365 8.25581C75.5848 8.1254 75.9574 8.0705 76.3291 8.09484C76.8331 8.0817 77.3245 8.25365 77.7093 8.57779C77.9671 8.84378 78.112 9.19834 78.1138 9.56783H80.5425C80.5123 8.75878 80.1802 7.98981 79.6114 7.41066C78.8424 6.60575 77.5878 6.20327 76.3089 6.20327C75.1515 6.15867 74.0166 6.53015 73.1116 7.2497C72.771 7.53626 72.4987 7.89491 72.3156 8.2995C72.132 8.70405 72.0415 9.14425 72.0514 9.58795C72.0622 10.2654 72.3111 10.9177 72.7543 11.4322C73.198 11.9466 73.8082 12.2908 74.4796 12.4052C75.4107 12.6064 76.4628 12.6668 77.3979 12.8076C77.6827 12.8221 77.9509 12.9452 78.1467 13.1513C78.3429 13.3575 78.4513 13.6307 78.45 13.9144C78.45 15.0614 77.1508 15.2425 76.3008 15.2425C75.7225 15.2919 75.1456 15.1271 74.6821 14.7797C74.4027 14.5311 74.2146 14.1968 74.148 13.8299H71.7639C71.8683 14.6475 72.2562 15.4034 72.861 15.9669C73.792 16.7951 75.012 17.2284 76.2603 17.1743C77.6971 17.1743 79.0165 16.8081 79.8666 15.9669C80.1672 15.6663 80.4034 15.3078 80.5596 14.9133C80.7162 14.5189 80.7904 14.0968 80.7769 13.6729C80.7769 12.0229 79.5628 10.9764 77.8996 10.7148C76.8673 10.5539 76.6045 10.5338 75.6532 10.413C75.0867 10.3325 74.4391 10.1112 74.4391 9.36258H74.427ZM71.0394 11.7773C71.1442 10.4956 70.8243 9.21512 70.129 8.13107C69.7047 7.51187 69.1296 7.0098 68.4573 6.67194C67.7845 6.33408 67.0371 6.17145 66.2842 6.19926C65.6623 6.18149 65.0431 6.29012 64.4649 6.51845C63.8866 6.74682 63.361 7.09013 62.9209 7.52739C61.9089 8.55362 61.4031 10.0468 61.4031 11.7169C61.3725 12.4874 61.5003 13.256 61.7788 13.9756C62.0574 14.6953 62.4804 15.351 63.0222 15.9025C63.4618 16.3266 63.982 16.6592 64.5526 16.8811C65.1232 17.1029 65.7325 17.2094 66.345 17.1944C67.0078 17.2229 67.6689 17.1056 68.2809 16.851C68.8929 16.5964 69.441 16.2107 69.886 15.7214C70.3468 15.1655 70.6537 14.4996 70.7766 13.7896H68.3479C68.2633 14.125 68.0887 14.4311 67.8421 14.675C67.6365 14.8626 67.393 15.0045 67.1275 15.0912C66.8625 15.1779 66.5817 15.2076 66.3045 15.1781C65.7199 15.176 65.1601 14.9446 64.7461 14.5342C64.4842 14.262 64.2808 13.9397 64.1476 13.5868C64.0149 13.234 63.9555 12.858 63.973 12.4816H70.9989C70.9989 12.2603 70.9989 11.7773 70.9989 11.7773H71.0394ZM68.4694 10.6504H63.9568C63.9433 10.0593 64.1364 9.4817 64.5031 9.01649C64.7133 8.75509 64.9819 8.54615 65.2875 8.40638C65.5935 8.26661 65.9274 8.19992 66.264 8.21158C66.5578 8.19583 66.8521 8.24141 67.1275 8.34536C67.4025 8.44931 67.6531 8.60937 67.8624 8.81525C68.2975 9.3273 68.5279 9.98043 68.5099 10.6504H68.4694ZM57.6676 16.9288H60.2011V9.93003C60.2011 7.75275 58.8858 6.18315 56.6358 6.18315C56.0224 6.15507 55.4127 6.28931 54.8686 6.57213C54.325 6.85491 53.866 7.27625 53.5393 7.79298L53.3575 6.44478H51.2326V16.9087H53.7621V12.6466C53.7621 11.7612 53.7621 10.6746 54.1059 9.82942C54.4501 8.98427 55.0369 8.49728 55.9275 8.49728C57.2631 8.49728 57.6676 9.24185 57.6676 10.4734V16.9288ZM49.6581 8.68646C49.7935 8.68813 49.9285 8.69753 50.0631 8.71463V6.32805C49.9537 6.32805 49.8444 6.30389 49.735 6.30389C48.5007 6.30389 47.2461 6.80699 46.7565 8.01434L46.5378 6.44478H44.3886V16.9087H46.9585V11.6405C46.9585 9.95015 47.8896 8.6784 49.6702 8.6784L49.6581 8.68646ZM41.6975 17.0777C42.1327 17.0916 42.5647 16.9946 42.9521 16.796V14.9407C42.8459 14.9655 42.737 14.979 42.6281 14.9809C42.2236 14.9809 42.0413 14.7998 42.0413 14.3169V10.4331C42.0728 9.71489 41.9698 8.99705 41.7376 8.3162C41.1265 6.7466 39.5889 6.18315 37.788 6.18315C35.4403 6.18315 33.5584 7.22954 33.4127 9.58795H35.8655C35.9258 8.61802 36.6139 8.09484 37.788 8.09484C39.2244 8.09484 39.5686 8.75891 39.5686 9.74895V10.3929L36.4726 10.6142C34.4488 10.7551 32.9068 11.9021 32.9068 13.8943C32.9068 15.6047 34.206 17.1783 36.7152 17.1783C38.2128 17.1783 39.4268 16.4499 39.9124 15.6047C39.9574 16.0334 40.1698 16.4275 40.5032 16.7028C40.8367 16.9781 41.2651 17.1126 41.6975 17.0777ZM39.5686 12.7473C39.5686 14.2967 38.4558 15.162 36.8772 15.162C36.6918 15.1774 36.505 15.1553 36.3286 15.0974C36.1517 15.0394 35.9888 14.9465 35.8489 14.8245C35.7089 14.7024 35.5955 14.5535 35.515 14.3867C35.4344 14.22 35.3881 14.0388 35.3795 13.854C35.3795 13.0088 36.1283 12.546 36.8974 12.4857L39.5686 12.2844V12.7473ZM29.2725 16.9127H31.8263V9.86969C31.8263 7.69641 30.4988 6.09464 28.2323 6.09464C27.6739 6.08298 27.1206 6.20223 26.6172 6.44276C26.1138 6.68328 25.6744 7.03829 25.3346 7.47906V2.24714H22.7808V16.9127H25.3346V11.3507C25.3346 10.0508 25.9862 8.42888 27.52 8.42888C28.8637 8.42888 29.2725 9.17746 29.2725 10.3969V16.9127Z" fill="#07182B"/>
</svg>
